<?xml version="1.0" encoding="UTF-8"?>
<CustomTab xmlns="http://soap.sforce.com/2006/04/metadata">
    <customObject>true</customObject>
    <description>This tab allows access to household program eligibility</description>
    <mobileReady>false</mobileReady>
    <motif>Custom62: Chalkboard</motif>
</CustomTab>
