<?xml version="1.0" encoding="UTF-8"?>
<CustomTab xmlns="http://soap.sforce.com/2006/04/metadata">
    <frameHeight>9999</frameHeight>
    <hasSidebar>true</hasSidebar>
    <label>BW Reports</label>
    <mobileReady>false</mobileReady>
    <motif>Custom55: Books</motif>
    <url>http://sapsbap8.asco.ashland.com:8080/sap/bw/BEx?sap-language=EN&amp;bsplanguage=EN&amp;CMD=LDOC&amp;INFOCUBE=YF_COPAM1&amp;QUERY=YYF_COPAM1Q_EMEA_WEB&amp;VARIABLE_SCREEN=X&amp;DUMMY=1</url>
    <urlEncodingKey>UTF-8</urlEncodingKey>
</CustomTab>
