<?xml version="1.0" encoding="UTF-8"?>
<CustomTab xmlns="http://soap.sforce.com/2006/04/metadata">
    <frameHeight>600</frameHeight>
    <hasSidebar>true</hasSidebar>
    <label>Generate SQL</label>
    <mobileReady>false</mobileReady>
    <motif>Custom9: Lightning</motif>
    <scontrol>GenerateSQLonObject</scontrol>
</CustomTab>
