<?xml version="1.0" encoding="UTF-8"?>
<CustomTab xmlns="http://soap.sforce.com/2006/04/metadata">
    <frameHeight>2000</frameHeight>
    <hasSidebar>true</hasSidebar>
    <label>Global Samples Dashboard</label>
    <mobileReady>false</mobileReady>
    <motif>Custom97: Thermometer</motif>
    <scontrol>Link_to_Global_Samples_Admin_Dashboard</scontrol>
</CustomTab>
