<?xml version="1.0" encoding="UTF-8"?>
<CustomTab xmlns="http://soap.sforce.com/2006/04/metadata">
    <customObject>true</customObject>
    <description>Event for a market detail page</description>
    <mobileReady>false</mobileReady>
    <motif>Custom81: Musical Note</motif>
</CustomTab>
