<?xml version="1.0" encoding="UTF-8"?>
<CustomTab xmlns="http://soap.sforce.com/2006/04/metadata">
    <label>Object Prefixes</label>
    <mobileReady>false</mobileReady>
    <motif>Custom20: Airplane</motif>
    <page>ObjectPrefixListPage</page>
</CustomTab>
