<?xml version="1.0" encoding="UTF-8"?>
<CustomTab xmlns="http://soap.sforce.com/2006/04/metadata">
    <label>Salesforce Process Navigator</label>
    <mobileReady>true</mobileReady>
    <motif>Custom64: Compass</motif>
    <page>Salesforce_Process_Navigator</page>
</CustomTab>
