<?xml version="1.0" encoding="UTF-8"?>
<CustomTab xmlns="http://soap.sforce.com/2006/04/metadata">
    <frameHeight>600</frameHeight>
    <hasSidebar>false</hasSidebar>
    <label>Upload Supplemental Claims</label>
    <mobileReady>false</mobileReady>
    <motif>Custom20: Airplane</motif>
    <url>/apex/CSV_Data_Page1?ck=supclaims</url>
    <urlEncodingKey>UTF-8</urlEncodingKey>
</CustomTab>
